-----BEGIN PGP SIGNATURE-----
Version: GnuPG v2

iF4EABEIAAYFAlZy4MMACgkQRxvnM+8pGj9NvgD/YNEIOd4fNmM9YcFnRHEPstus
DUXXyRPRw2aagQwgrRkBAMn6ZW49Vof0uXQ8y0oU9BZ14xjAHwXYoZbBzn2TLdH1
=PzBj
-----END PGP SIGNATURE-----
